# 3ds Max Wavefront OBJ Exporter v0.97b - (c)2007 guruware
# File Created: 10.06.2011 16:14:45

newmtl _10927_Paper_clip_v2Material_metal_jpg_metal_jpg
	Ns 15.0000
	Ni 1.5000
	d 1.0000
	Tr 0.0000
	Tf 1.0000 1.0000 1.0000 
	illum 2
	Ka 0.0000 0.0000 0.0000
	Kd 0.2828 0.2805 0.2928
	Ks 0.1250 0.1250 0.1250
	Ke 0.0000 0.0000 0.0000
	map_Ka metal.jpg
	map_Kd metal.jpg
